alloc 0x83a2058
alloc 0x83a208c
alloc 0x83a2058
alloc 0x83a4a98
alloc 0x83a2058
alloc 0x83a4a98
alloc 0x83a4a98
alloc 0x83a4a98
alloc 0x83a4a98
alloc 0x83a4a98
alloc 0x83a4a98
alloc 0x83a4a98
alloc 0x83a4a98
alloc 0x83a4a98
alloc 0x83a4a98
alloc 0x83a4a98
alloc 0x83a4a98
alloc 0x83a4a98
alloc 0x83a4a98
alloc 0x83a4a98
alloc 0x83a4a98
alloc 0x83a4a98
alloc 0x83a4a98
alloc 0x83a4a98
alloc 0x83a4a98
alloc 0x83a4a98
alloc 0x83a4a98
alloc 0x83a4a98
alloc 0x83a4a98
alloc 0x83a4a98
alloc 0x83a4a98
alloc 0x83a4a98
alloc 0x83a4a98
alloc 0x83a4a98
alloc 0x83a4a98
alloc 0x83a4a98
alloc 0x83a4a98
alloc 0x83a4a98
alloc 0x83a4a98
alloc 0x83a4a98
alloc 0x83a4a98
alloc 0x83a4a98
alloc 0x83a4a98
alloc 0x83a4a98
alloc 0x83a4a98
alloc 0x83a4a98
alloc 0x83a4a98
alloc 0x83a4a98
alloc 0x83a4a98
alloc 0x83a4a98
alloc 0x83a4a98
alloc 0x83a4a98
alloc 0x83a39d8
alloc 0x83a3a0c
alloc 0x83a39d8
alloc 0x83a6418
alloc 0x83a39d8
alloc 0x83a6418
alloc 0x83a6418
alloc 0x83a6418
alloc 0x83a6418
alloc 0x83a6418
alloc 0x83a6418
alloc 0x83a6418
alloc 0x83a6418
alloc 0x83a6418
alloc 0x83a6418
alloc 0x83a6418
alloc 0x83a6418
alloc 0x83a6418
alloc 0x83a6418
alloc 0x83a6418
alloc 0x83a6418
alloc 0x83a6418
alloc 0x83a6418
alloc 0x83a6418
alloc 0x83a6418
alloc 0x83a6418
alloc 0x83a6418
alloc 0x83a6418
alloc 0x83a6418
alloc 0x83a6418
alloc 0x83a6418
alloc 0x83a6418
alloc 0x83a6418
alloc 0x83a6418
alloc 0x83a6418
alloc 0x83a6418
alloc 0x83a6418
alloc 0x83a6418
alloc 0x83a6418
alloc 0x83a6418
alloc 0x83a6418
alloc 0x83a6418
alloc 0x83a6418
alloc 0x83a6418
alloc 0x83a6418
alloc 0x83a6418
alloc 0x83a6418
alloc 0x83a6418
alloc 0x83a6418
alloc 0x83a6418
alloc 0x83a6418
alloc 0x83a6418
alloc 0x83a5360
alloc 0x83a5394
alloc 0x83a5360
alloc 0x83a7da0
alloc 0x83a5360
alloc 0x83a7da0
alloc 0x83a7da0
alloc 0x83a7da0
alloc 0x83a7da0
alloc 0x83a7da0
alloc 0x83a7da0
alloc 0x83a7da0
alloc 0x83a7da0
alloc 0x83a7da0
alloc 0x83a7da0
alloc 0x83a7da0
alloc 0x83a7da0
alloc 0x83a7da0
alloc 0x83a7da0
alloc 0x83a7da0
alloc 0x83a7da0
alloc 0x83a7da0
alloc 0x83a7da0
alloc 0x83a7da0
alloc 0x83a7da0
alloc 0x83a7da0
alloc 0x83a7da0
alloc 0x83a7da0
alloc 0x83a7da0
alloc 0x83a7da0
alloc 0x83a7da0
alloc 0x83a7da0
alloc 0x83a7da0
alloc 0x83a7da0
alloc 0x83a7da0
alloc 0x83a7da0
alloc 0x83a7da0
alloc 0x83a7da0
alloc 0x83a7da0
alloc 0x83a7da0
alloc 0x83a7da0
alloc 0x83a7da0
alloc 0x83a7da0
alloc 0x83a7da0
alloc 0x83a7da0
alloc 0x83a7da0
alloc 0x83a7da0
alloc 0x83a7da0
alloc 0x83a7da0
alloc 0x83a7da0
alloc 0x83a7da0
alloc 0x83a7da0
alloc 0x83a6cf0
alloc 0x83a6d24
alloc 0x83a6cf0
alloc 0x83a9730
alloc 0x83a6cf0
alloc 0x83a9730
alloc 0x83a9730
alloc 0x83a9730
alloc 0x83a9730
alloc 0x83a9730
alloc 0x83a9730
alloc 0x83a9730
alloc 0x83a9730
alloc 0x83a9730
alloc 0x83a9730
alloc 0x83a9730
alloc 0x83a9730
alloc 0x83a9730
alloc 0x83a9730
alloc 0x83a9730
alloc 0x83a9730
alloc 0x83a9730
alloc 0x83a9730
alloc 0x83a9730
alloc 0x83a9730
alloc 0x83a9730
alloc 0x83a9730
alloc 0x83a9730
alloc 0x83a9730
alloc 0x83a9730
alloc 0x83a9730
alloc 0x83a9730
alloc 0x83a9730
alloc 0x83a9730
alloc 0x83a9730
alloc 0x83a9730
alloc 0x83a9730
alloc 0x83a9730
alloc 0x83a9730
alloc 0x83a9730
alloc 0x83a9730
alloc 0x83a9730
alloc 0x83a9730
alloc 0x83a9730
alloc 0x83a9730
alloc 0x83a9730
alloc 0x83a9730
alloc 0x83a9730
alloc 0x83a9730
alloc 0x83a9730
alloc 0x83a9730
alloc 0x83a9730
alloc 0x83a8688
alloc 0x83a86bc
alloc 0x83a8688
alloc 0x83ab0c8
alloc 0x83a8688
alloc 0x83ab0c8
alloc 0x83ab0c8
alloc 0x83ab0c8
alloc 0x83ab0c8
alloc 0x83ab0c8
alloc 0x83ab0c8
alloc 0x83ab0c8
alloc 0x83ab0c8
alloc 0x83ab0c8
alloc 0x83ab0c8
alloc 0x83ab0c8
alloc 0x83ab0c8
alloc 0x83ab0c8
alloc 0x83ab0c8
alloc 0x83ab0c8
alloc 0x83ab0c8
alloc 0x83ab0c8
alloc 0x83ab0c8
alloc 0x83ab0c8
alloc 0x83ab0c8
alloc 0x83ab0c8
alloc 0x83ab0c8
alloc 0x83ab0c8
alloc 0x83ab0c8
alloc 0x83ab0c8
alloc 0x83ab0c8
alloc 0x83ab0c8
alloc 0x83ab0c8
alloc 0x83ab0c8
alloc 0x83ab0c8
alloc 0x83ab0c8
alloc 0x83ab0c8
alloc 0x83ab0c8
alloc 0x83ab0c8
alloc 0x83ab0c8
alloc 0x83ab0c8
alloc 0x83ab0c8
alloc 0x83ab0c8
alloc 0x83ab0c8
alloc 0x83ab0c8
alloc 0x83ab0c8
alloc 0x83ab0c8
alloc 0x83ab0c8
alloc 0x83ab0c8
alloc 0x83ab0c8
alloc 0x83ab0c8
alloc 0x83ab0c8
alloc 0x83aa028
alloc 0x83aa05c
alloc 0x83aa028
alloc 0x83aca68
alloc 0x83aa028
alloc 0x83aca68
alloc 0x83aca68
alloc 0x83aca68
alloc 0x83aca68
alloc 0x83aca68
alloc 0x83aca68
alloc 0x83aca68
alloc 0x83aca68
alloc 0x83aca68
alloc 0x83aca68
alloc 0x83aca68
alloc 0x83aca68
alloc 0x83aca68
alloc 0x83aca68
alloc 0x83aca68
alloc 0x83aca68
alloc 0x83aca68
alloc 0x83aca68
alloc 0x83aca68
alloc 0x83aca68
alloc 0x83aca68
alloc 0x83aca68
alloc 0x83aca68
alloc 0x83aca68
alloc 0x83aca68
alloc 0x83aca68
alloc 0x83aca68
alloc 0x83aca68
alloc 0x83aca68
alloc 0x83aca68
alloc 0x83aca68
alloc 0x83aca68
alloc 0x83aca68
alloc 0x83aca68
alloc 0x83aca68
alloc 0x83aca68
alloc 0x83aca68
alloc 0x83aca68
alloc 0x83aca68
alloc 0x83aca68
alloc 0x83aca68
alloc 0x83aca68
alloc 0x83aca68
alloc 0x83aca68
alloc 0x83aca68
alloc 0x83aca68
alloc 0x83aca68
alloc 0x83ab9d0
alloc 0x83aba04
alloc 0x83ab9d0
alloc 0x83ae410
alloc 0x83ab9d0
alloc 0x83ae410
alloc 0x83ae410
alloc 0x83ae410
alloc 0x83ae410
alloc 0x83ae410
alloc 0x83ae410
alloc 0x83ae410
alloc 0x83ae410
alloc 0x83ae410
alloc 0x83ae410
alloc 0x83ae410
alloc 0x83ae410
alloc 0x83ae410
alloc 0x83ae410
alloc 0x83ae410
alloc 0x83ae410
alloc 0x83ae410
alloc 0x83ae410
alloc 0x83ae410
alloc 0x83ae410
alloc 0x83ae410
alloc 0x83ae410
alloc 0x83ae410
alloc 0x83ae410
alloc 0x83ae410
alloc 0x83ae410
alloc 0x83ae410
alloc 0x83ae410
alloc 0x83ae410
alloc 0x83ae410
alloc 0x83ae410
alloc 0x83ae410
alloc 0x83ae410
alloc 0x83ae410
alloc 0x83ae410
alloc 0x83ae410
alloc 0x83ae410
alloc 0x83ae410
alloc 0x83ae410
alloc 0x83ae410
alloc 0x83ae410
alloc 0x83ae410
alloc 0x83ae410
alloc 0x83ae410
alloc 0x83ae410
alloc 0x83ae410
alloc 0x83ae410
alloc 0x83ad380
alloc 0x83ad3b4
alloc 0x83ad380
alloc 0x83afdc0
alloc 0x83ad380
alloc 0x83afdc0
alloc 0x83afdc0
alloc 0x83afdc0
alloc 0x83afdc0
alloc 0x83afdc0
alloc 0x83afdc0
alloc 0x83afdc0
alloc 0x83afdc0
alloc 0x83afdc0
alloc 0x83afdc0
alloc 0x83afdc0
alloc 0x83afdc0
alloc 0x83afdc0
alloc 0x83afdc0
alloc 0x83afdc0
alloc 0x83afdc0
alloc 0x83afdc0
alloc 0x83afdc0
alloc 0x83afdc0
alloc 0x83afdc0
alloc 0x83afdc0
alloc 0x83afdc0
alloc 0x83afdc0
alloc 0x83afdc0
alloc 0x83afdc0
alloc 0x83afdc0
alloc 0x83afdc0
alloc 0x83afdc0
alloc 0x83afdc0
alloc 0x83afdc0
alloc 0x83afdc0
alloc 0x83afdc0
alloc 0x83afdc0
alloc 0x83afdc0
alloc 0x83afdc0
alloc 0x83afdc0
alloc 0x83afdc0
alloc 0x83afdc0
alloc 0x83afdc0
alloc 0x83afdc0
alloc 0x83afdc0
alloc 0x83afdc0
alloc 0x83afdc0
alloc 0x83afdc0
alloc 0x83afdc0
alloc 0x83afdc0
alloc 0x83afdc0
alloc 0x83aed38
alloc 0x83aed6c
alloc 0x83aed38
alloc 0x83b1778
alloc 0x83aed38
alloc 0x83b1778
alloc 0x83b1778
alloc 0x83b1778
alloc 0x83b1778
alloc 0x83b1778
alloc 0x83b1778
alloc 0x83b1778
alloc 0x83b1778
alloc 0x83b1778
alloc 0x83b1778
alloc 0x83b1778
alloc 0x83b1778
alloc 0x83b1778
alloc 0x83b1778
alloc 0x83b1778
alloc 0x83b1778
alloc 0x83b1778
alloc 0x83b1778
alloc 0x83b1778
alloc 0x83b1778
alloc 0x83b1778
alloc 0x83b1778
alloc 0x83b1778
alloc 0x83b1778
alloc 0x83b1778
alloc 0x83b1778
alloc 0x83b1778
alloc 0x83b1778
alloc 0x83b1778
alloc 0x83b1778
alloc 0x83b1778
alloc 0x83b1778
alloc 0x83b1778
alloc 0x83b1778
alloc 0x83b1778
alloc 0x83b1778
alloc 0x83b1778
alloc 0x83b1778
alloc 0x83b1778
alloc 0x83b1778
alloc 0x83b1778
alloc 0x83b1778
alloc 0x83b1778
alloc 0x83b1778
alloc 0x83b1778
alloc 0x83b1778
alloc 0x83b1778
alloc 0x83b06f8
alloc 0x83b072c
alloc 0x83b06f8
alloc 0x83b3138
alloc 0x83b06f8
alloc 0x83b3138
alloc 0x83b3138
alloc 0x83b3138
alloc 0x83b3138
alloc 0x83b3138
alloc 0x83b3138
alloc 0x83b3138
alloc 0x83b3138
alloc 0x83b3138
alloc 0x83b3138
alloc 0x83b3138
alloc 0x83b3138
alloc 0x83b3138
alloc 0x83b3138
alloc 0x83b3138
alloc 0x83b3138
alloc 0x83b3138
alloc 0x83b3138
alloc 0x83b3138
alloc 0x83b3138
alloc 0x83b3138
alloc 0x83b3138
alloc 0x83b3138
alloc 0x83b3138
alloc 0x83b3138
alloc 0x83b3138
alloc 0x83b3138
alloc 0x83b3138
alloc 0x83b3138
alloc 0x83b3138
alloc 0x83b3138
alloc 0x83b3138
alloc 0x83b3138
alloc 0x83b3138
alloc 0x83b3138
alloc 0x83b3138
alloc 0x83b3138
alloc 0x83b3138
alloc 0x83b3138
alloc 0x83b3138
alloc 0x83b3138
alloc 0x83b3138
alloc 0x83b3138
alloc 0x83b3138
alloc 0x83b3138
alloc 0x83b3138
alloc 0x83b3138
alloc 0x83b20c0
alloc 0x83b20f4
alloc 0x83b20c0
alloc 0x83b4b00
alloc 0x83b20c0
alloc 0x83b4b00
alloc 0x83b4b00
alloc 0x83b4b00
alloc 0x83b4b00
alloc 0x83b4b00
alloc 0x83b4b00
alloc 0x83b4b00
alloc 0x83b4b00
alloc 0x83b4b00
alloc 0x83b4b00
alloc 0x83b4b00
alloc 0x83b4b00
alloc 0x83b4b00
alloc 0x83b4b00
alloc 0x83b4b00
alloc 0x83b4b00
alloc 0x83b4b00
alloc 0x83b4b00
alloc 0x83b4b00
alloc 0x83b4b00
alloc 0x83b4b00
alloc 0x83b4b00
alloc 0x83b4b00
alloc 0x83b4b00
alloc 0x83b4b00
alloc 0x83b4b00
alloc 0x83b4b00
alloc 0x83b4b00
alloc 0x83b4b00
alloc 0x83b4b00
alloc 0x83b4b00
alloc 0x83b4b00
alloc 0x83b4b00
alloc 0x83b4b00
alloc 0x83b4b00
alloc 0x83b4b00
alloc 0x83b4b00
alloc 0x83b4b00
alloc 0x83b4b00
alloc 0x83b4b00
alloc 0x83b4b00
alloc 0x83b4b00
alloc 0x83b4b00
alloc 0x83b4b00
alloc 0x83b4b00
alloc 0x83b4b00
alloc 0x83b4b00
alloc 0x83b3a90
alloc 0x83b3ac4
alloc 0x83b3a90
alloc 0x83b64d0
alloc 0x83b3a90
alloc 0x83b64d0
alloc 0x83b64d0
alloc 0x83b64d0
alloc 0x83b64d0
alloc 0x83b64d0
alloc 0x83b64d0
alloc 0x83b64d0
alloc 0x83b64d0
alloc 0x83b64d0
alloc 0x83b64d0
alloc 0x83b64d0
alloc 0x83b64d0
alloc 0x83b64d0
alloc 0x83b64d0
alloc 0x83b64d0
alloc 0x83b64d0
alloc 0x83b64d0
alloc 0x83b64d0
alloc 0x83b64d0
alloc 0x83b64d0
alloc 0x83b64d0
alloc 0x83b64d0
alloc 0x83b64d0
alloc 0x83b64d0
alloc 0x83b64d0
alloc 0x83b64d0
alloc 0x83b64d0
alloc 0x83b64d0
alloc 0x83b64d0
alloc 0x83b64d0
alloc 0x83b64d0
alloc 0x83b64d0
alloc 0x83b64d0
alloc 0x83b64d0
alloc 0x83b64d0
alloc 0x83b64d0
alloc 0x83b64d0
alloc 0x83b64d0
alloc 0x83b64d0
alloc 0x83b64d0
alloc 0x83b64d0
alloc 0x83b64d0
alloc 0x83b64d0
alloc 0x83b64d0
alloc 0x83b64d0
alloc 0x83b64d0
alloc 0x83b64d0
alloc 0x83b5468
alloc 0x83b549c
alloc 0x83b5468
alloc 0x83b7ea8
alloc 0x83b5468
alloc 0x83b7ea8
alloc 0x83b7ea8
alloc 0x83b7ea8
alloc 0x83b7ea8
alloc 0x83b7ea8
alloc 0x83b7ea8
alloc 0x83b7ea8
alloc 0x83b7ea8
alloc 0x83b7ea8
alloc 0x83b7ea8
alloc 0x83b7ea8
alloc 0x83b7ea8
alloc 0x83b7ea8
alloc 0x83b7ea8
alloc 0x83b7ea8
alloc 0x83b7ea8
alloc 0x83b7ea8
alloc 0x83b7ea8
alloc 0x83b7ea8
alloc 0x83b7ea8
alloc 0x83b7ea8
alloc 0x83b7ea8
alloc 0x83b7ea8
alloc 0x83b7ea8
alloc 0x83b7ea8
alloc 0x83b7ea8
alloc 0x83b7ea8
alloc 0x83b7ea8
alloc 0x83b7ea8
alloc 0x83b7ea8
alloc 0x83b7ea8
alloc 0x83b7ea8
alloc 0x83b7ea8
alloc 0x83b7ea8
alloc 0x83b7ea8
alloc 0x83b7ea8
alloc 0x83b7ea8
alloc 0x83b7ea8
alloc 0x83b7ea8
alloc 0x83b7ea8
alloc 0x83b7ea8
alloc 0x83b7ea8
alloc 0x83b7ea8
alloc 0x83b7ea8
alloc 0x83b7ea8
alloc 0x83b7ea8
alloc 0x83b7ea8
alloc 0x83b6e48
alloc 0x83b6e7c
alloc 0x83b6e48
alloc 0x83b9888
alloc 0x83b6e48
alloc 0x83b9888
alloc 0x83b9888
alloc 0x83b9888
alloc 0x83b9888
alloc 0x83b9888
alloc 0x83b9888
alloc 0x83b9888
alloc 0x83b9888
alloc 0x83b9888
alloc 0x83b9888
alloc 0x83b9888
alloc 0x83b9888
alloc 0x83b9888
alloc 0x83b9888
alloc 0x83b9888
alloc 0x83b9888
alloc 0x83b9888
alloc 0x83b9888
alloc 0x83b9888
alloc 0x83b9888
alloc 0x83b9888
alloc 0x83b9888
alloc 0x83b9888
alloc 0x83b9888
alloc 0x83b9888
alloc 0x83b9888
alloc 0x83b9888
alloc 0x83b9888
alloc 0x83b9888
alloc 0x83b9888
alloc 0x83b9888
alloc 0x83b9888
alloc 0x83b9888
alloc 0x83b9888
alloc 0x83b9888
alloc 0x83b9888
alloc 0x83b9888
alloc 0x83b9888
alloc 0x83b9888
alloc 0x83b9888
alloc 0x83b9888
alloc 0x83b9888
alloc 0x83b9888
alloc 0x83b9888
alloc 0x83b9888
alloc 0x83b9888
alloc 0x83b9888
alloc 0x83b8830
alloc 0x83b8864
alloc 0x83b8830
alloc 0x83bb270
alloc 0x83b8830
alloc 0x83bb270
alloc 0x83bb270
alloc 0x83bb270
alloc 0x83bb270
alloc 0x83bb270
alloc 0x83bb270
alloc 0x83bb270
alloc 0x83bb270
alloc 0x83bb270
alloc 0x83bb270
alloc 0x83bb270
alloc 0x83bb270
alloc 0x83bb270
alloc 0x83bb270
alloc 0x83bb270
alloc 0x83bb270
alloc 0x83bb270
alloc 0x83bb270
alloc 0x83bb270
alloc 0x83bb270
alloc 0x83bb270
alloc 0x83bb270
alloc 0x83bb270
alloc 0x83bb270
alloc 0x83bb270
alloc 0x83bb270
alloc 0x83bb270
alloc 0x83bb270
alloc 0x83bb270
alloc 0x83bb270
alloc 0x83bb270
alloc 0x83bb270
alloc 0x83bb270
alloc 0x83bb270
alloc 0x83bb270
alloc 0x83bb270
alloc 0x83bb270
alloc 0x83bb270
alloc 0x83bb270
alloc 0x83bb270
alloc 0x83bb270
alloc 0x83bb270
alloc 0x83bb270
alloc 0x83bb270
alloc 0x83bb270
alloc 0x83bb270
alloc 0x83bb270
alloc 0x83ba220
alloc 0x83ba254
alloc 0x83ba220
alloc 0x83bcc60
alloc 0x83ba220
alloc 0x83bcc60
alloc 0x83bcc60
alloc 0x83bcc60
alloc 0x83bcc60
alloc 0x83bcc60
alloc 0x83bcc60
alloc 0x83bcc60
alloc 0x83bcc60
alloc 0x83bcc60
alloc 0x83bcc60
alloc 0x83bcc60
alloc 0x83bcc60
alloc 0x83bcc60
alloc 0x83bcc60
alloc 0x83bcc60
alloc 0x83bcc60
alloc 0x83bcc60
alloc 0x83bcc60
alloc 0x83bcc60
alloc 0x83bcc60
alloc 0x83bcc60
alloc 0x83bcc60
alloc 0x83bcc60
alloc 0x83bcc60
alloc 0x83bcc60
alloc 0x83bcc60
alloc 0x83bcc60
alloc 0x83bcc60
alloc 0x83bcc60
alloc 0x83bcc60
alloc 0x83bcc60
alloc 0x83bcc60
alloc 0x83bcc60
alloc 0x83bcc60
alloc 0x83bcc60
alloc 0x83bcc60
alloc 0x83bcc60
alloc 0x83bcc60
alloc 0x83bcc60
alloc 0x83bcc60
alloc 0x83bcc60
alloc 0x83bcc60
alloc 0x83bcc60
alloc 0x83bcc60
alloc 0x83bcc60
alloc 0x83bcc60
alloc 0x83bcc60
alloc 0x83bbc18
alloc 0x83bbc4c
alloc 0x83bbc18
alloc 0x83be658
alloc 0x83bbc18
alloc 0x83be658
alloc 0x83be658
alloc 0x83be658
alloc 0x83be658
alloc 0x83be658
alloc 0x83be658
alloc 0x83be658
alloc 0x83be658
alloc 0x83be658
alloc 0x83be658
alloc 0x83be658
alloc 0x83be658
alloc 0x83be658
alloc 0x83be658
alloc 0x83be658
alloc 0x83be658
alloc 0x83be658
alloc 0x83be658
alloc 0x83be658
alloc 0x83be658
alloc 0x83be658
alloc 0x83be658
alloc 0x83be658
alloc 0x83be658
alloc 0x83be658
alloc 0x83be658
alloc 0x83be658
alloc 0x83be658
alloc 0x83be658
alloc 0x83be658
alloc 0x83be658
alloc 0x83be658
alloc 0x83be658
alloc 0x83be658
alloc 0x83be658
alloc 0x83be658
alloc 0x83be658
alloc 0x83be658
alloc 0x83be658
alloc 0x83be658
alloc 0x83be658
alloc 0x83be658
alloc 0x83be658
alloc 0x83be658
alloc 0x83be658
alloc 0x83be658
alloc 0x83be658
alloc 0x83bd618
alloc 0x83bd64c
alloc 0x83bd618
alloc 0x83c0058
alloc 0x83bd618
alloc 0x83c0058
alloc 0x83c0058
alloc 0x83c0058
alloc 0x83c0058
alloc 0x83c0058
alloc 0x83c0058
alloc 0x83c0058
alloc 0x83c0058
alloc 0x83c0058
alloc 0x83c0058
alloc 0x83c0058
alloc 0x83c0058
alloc 0x83c0058
alloc 0x83c0058
alloc 0x83c0058
alloc 0x83c0058
alloc 0x83c0058
alloc 0x83c0058
alloc 0x83c0058
alloc 0x83c0058
alloc 0x83c0058
alloc 0x83c0058
alloc 0x83c0058
alloc 0x83c0058
alloc 0x83c0058
alloc 0x83c0058
alloc 0x83c0058
alloc 0x83c0058
alloc 0x83c0058
alloc 0x83c0058
alloc 0x83c0058
alloc 0x83c0058
alloc 0x83c0058
alloc 0x83c0058
alloc 0x83c0058
alloc 0x83c0058
alloc 0x83c0058
alloc 0x83c0058
alloc 0x83c0058
alloc 0x83c0058
alloc 0x83c0058
alloc 0x83c0058
alloc 0x83c0058
alloc 0x83c0058
alloc 0x83c0058
alloc 0x83c0058
alloc 0x83c0058
alloc 0x83bf020
alloc 0x83bf054
alloc 0x83bf020
alloc 0x83c1a60
alloc 0x83bf020
alloc 0x83c1a60
alloc 0x83c1a60
alloc 0x83c1a60
alloc 0x83c1a60
alloc 0x83c1a60
alloc 0x83c1a60
alloc 0x83c1a60
alloc 0x83c1a60
alloc 0x83c1a60
alloc 0x83c1a60
alloc 0x83c1a60
alloc 0x83c1a60
alloc 0x83c1a60
alloc 0x83c1a60
alloc 0x83c1a60
alloc 0x83c1a60
alloc 0x83c1a60
alloc 0x83c1a60
alloc 0x83c1a60
alloc 0x83c1a60
alloc 0x83c1a60
alloc 0x83c1a60
alloc 0x83c1a60
alloc 0x83c1a60
alloc 0x83c1a60
alloc 0x83c1a60
alloc 0x83c1a60
alloc 0x83c1a60
alloc 0x83c1a60
alloc 0x83c1a60
alloc 0x83c1a60
alloc 0x83c1a60
alloc 0x83c1a60
alloc 0x83c1a60
alloc 0x83c1a60
alloc 0x83c1a60
alloc 0x83c1a60
alloc 0x83c1a60
alloc 0x83c1a60
alloc 0x83c1a60
alloc 0x83c1a60
alloc 0x83c1a60
alloc 0x83c1a60
alloc 0x83c1a60
alloc 0x83c1a60
alloc 0x83c1a60
alloc 0x83c1a60
alloc 0x83c0a30
alloc 0x83c0a64
alloc 0x83c0a30
